@startuml

Actor Postman
participant HttpServlet
participant AddressServlet << (C,#ADD1B2) >>
participant JsonUtil << (C,#ADD1B2) >>
participant AddressService << (C,#ADD1B2) >>

Activate HttpServlet
Postman -> HttpServlet : Send the Json String from params to HttpServlet as Request
note right of Postman : Send through localhost:8080/address
HttpServlet -> AddressServlet : Passes the JSON string in req object
Deactivate HttpServlet

Activate AddressServlet
AddressServlet -> AddressServlet : Get id value from req as parameter with label "id", parse and store in addressId

group try (Use PrintWriter and ger the Writer from response)

group if(addressId != 0) 

AddressServlet -> AddressService : Invoke the read method and pass the personId and true for address

Activate AddressService 

AddressService -> AddressServlet : return the person values and store in personGot
Deactivate AddressService

Activate JsonUtil
AddressServlet -> JsonUtil : Invoke the serialize method and pass the personGot
JsonUtil -> AddressServlet : return the personString and store to personString

AddressServlet -> HttpServlet : return the personString
HttpServlet -> Postman : return the person

Deactivate JsonUtil

Deactivate AddressServlet

end

group else 

AddressServlet -> HttpServlet : return "Address Read Failure"
HttpServlet -> Postman : return "Address Read Failure"

end

end


@enduml