@startuml

Actor Postman
participant HttpServlet
participant AddressServlet << (C,#ADD1B2) >>
participant JsonUtil << (C,#ADD1B2) >>
participant AddressService << (C,#ADD1B2) >>

Activate HttpServlet
Postman -> HttpServlet : Send the JSON String from body to  HttpServlet as Request
note right of Postman : Send through localhost:8080/address
HttpServlet -> AddressServlet : Passes the JSON String in req object.
Deactivate HttpServlet

Activate AddressServlet
AddressServlet -> AddressServlet : Create objects for StringBuilder,BufferedReader and line


group try (Use BufferedReader and read the String from JSON and store to line)

AddressServlet -> AddressServlet : Get the String from JSON and append to addressJson of type StringBuilder


Activate JsonUtil
AddressServlet -> JsonUtil : invoke the deSerialize method and pass the addressJson String with Class type.
JsonUtil -> AddressServlet : Get the Address Object and store to addressGot.
Deactivate JsonUtil

activate AddressService
AddressServlet -> AddressService : Invoke the delete method and pass the addressId from addressGot
Deactivate AddressService

Deactivate
end


@enduml

