@startuml

Actor Postman
participant HttpServlet
participant PersonServlet << (C,#ADD1B2) >>
participant JsonUtil << (C,#ADD1B2) >>
participant PersonService << (C,#ADD1B2) >>

Activate HttpServlet
Postman -> HttpServlet : Send the JSON String from body to  HttpServlet as Request
note right of Postman : Send through localhost:8080/person
HttpServlet -> PersonServlet : Passes the JSON String in req object.
Deactivate HttpServlet

Activate PersonServlet
PersonServlet -> PersonServlet : Create objects for StringBuilder,BufferedReader and line


group try (Use BufferedReader and read the String from JSON and store to line)

PersonServlet -> PersonServlet : Get the String from JSON and append to personJSON of type StringBuilder


Activate JsonUtil
PersonServlet -> JsonUtil : invoke the deSerialize method and pass the personJson String with Class type.
JsonUtil -> PersonServlet : Get the Person Object and store to personGot.
Deactivate JsonUtil

activate PersonService
PersonServlet -> PersonService : Invoke the create method and pass the personGot
PersonService -> PersonServlet : return the personId created and store it in personId of type long
Deactivate PersonService

Activate JsonUtil
PersonServlet -> JsonUtil : invoke the Serialize method and pass the personId
JsonUtil -> PersonServlet : Return the JSON String and store to jsonGot of type String
Deactivate JsonUtil

Activate HttpServlet
PersonServlet -> HttpServlet : Send the JSON Object to response
HttpServlet -> Postman : return JSON String
note left of HttpServlet : return through localhost:8080/person
Deactivate HttpServlet

Deactivate
end


@enduml

